%YAML 1.1
%TAG !u! tag:unity3d.com,2011:
--- !u!1 &7246806464772552254
GameObject:
  m_ObjectHideFlags: 0
  m_CorrespondingSourceObject: {fileID: 0}
  m_PrefabInstance: {fileID: 0}
  m_PrefabAsset: {fileID: 0}
  serializedVersion: 6
  m_Component:
  - component: {fileID: 7246806464772552253}
  m_Layer: 0
  m_Name: Brush
  m_TagString: Untagged
  m_Icon: {fileID: 0}
  m_NavMeshLayer: 0
  m_StaticEditorFlags: 0
  m_IsActive: 1
--- !u!4 &7246806464772552253
Transform:
  m_ObjectHideFlags: 0
  m_CorrespondingSourceObject: {fileID: 0}
  m_PrefabInstance: {fileID: 0}
  m_PrefabAsset: {fileID: 0}
  m_GameObject: {fileID: 7246806464772552254}
  m_LocalRotation: {x: 0, y: 0, z: 0, w: 1}
  m_LocalPosition: {x: 0, y: 0, z: 0}
  m_LocalScale: {x: 1, y: 1, z: 1}
  m_Children:
  - {fileID: 3372296885198793869}
  m_Father: {fileID: 0}
  m_RootOrder: 0
  m_LocalEulerAnglesHint: {x: 0, y: 0, z: 0}
--- !u!1001 &2974195837218016102
PrefabInstance:
  m_ObjectHideFlags: 0
  serializedVersion: 2
  m_Modification:
    m_TransformParent: {fileID: 7246806464772552253}
    m_Modifications:
    - target: {fileID: -8679921383154817045, guid: 42ea41fe40656534fa7a1f52c08b8061,
        type: 3}
      propertyPath: m_LocalPosition.x
      value: -0
      objectReference: {fileID: 0}
    - target: {fileID: -8679921383154817045, guid: 42ea41fe40656534fa7a1f52c08b8061,
        type: 3}
      propertyPath: m_LocalPosition.y
      value: 2
      objectReference: {fileID: 0}
    - target: {fileID: -8679921383154817045, guid: 42ea41fe40656534fa7a1f52c08b8061,
        type: 3}
      propertyPath: m_LocalPosition.z
      value: 0
      objectReference: {fileID: 0}
    - target: {fileID: -8679921383154817045, guid: 42ea41fe40656534fa7a1f52c08b8061,
        type: 3}
      propertyPath: m_LocalRotation.x
      value: -0.7071068
      objectReference: {fileID: 0}
    - target: {fileID: -8679921383154817045, guid: 42ea41fe40656534fa7a1f52c08b8061,
        type: 3}
      propertyPath: m_LocalRotation.y
      value: 0
      objectReference: {fileID: 0}
    - target: {fileID: -8679921383154817045, guid: 42ea41fe40656534fa7a1f52c08b8061,
        type: 3}
      propertyPath: m_LocalRotation.z
      value: -0
      objectReference: {fileID: 0}
    - target: {fileID: -8679921383154817045, guid: 42ea41fe40656534fa7a1f52c08b8061,
        type: 3}
      propertyPath: m_LocalRotation.w
      value: 0.7071067
      objectReference: {fileID: 0}
    - target: {fileID: -8679921383154817045, guid: 42ea41fe40656534fa7a1f52c08b8061,
        type: 3}
      propertyPath: m_RootOrder
      value: 0
      objectReference: {fileID: 0}
    - target: {fileID: -8679921383154817045, guid: 42ea41fe40656534fa7a1f52c08b8061,
        type: 3}
      propertyPath: m_LocalEulerAnglesHint.x
      value: 0
      objectReference: {fileID: 0}
    - target: {fileID: -8679921383154817045, guid: 42ea41fe40656534fa7a1f52c08b8061,
        type: 3}
      propertyPath: m_LocalEulerAnglesHint.y
      value: 0
      objectReference: {fileID: 0}
    - target: {fileID: -8679921383154817045, guid: 42ea41fe40656534fa7a1f52c08b8061,
        type: 3}
      propertyPath: m_LocalEulerAnglesHint.z
      value: 0
      objectReference: {fileID: 0}
    - target: {fileID: -7511558181221131132, guid: 42ea41fe40656534fa7a1f52c08b8061,
        type: 3}
      propertyPath: m_Materials.Array.data[0]
      value: 
      objectReference: {fileID: 2100000, guid: 90e377e6cd871574fab01583565ba8a7, type: 2}
    - target: {fileID: 919132149155446097, guid: 42ea41fe40656534fa7a1f52c08b8061,
        type: 3}
      propertyPath: m_Name
      value: bush_obj
      objectReference: {fileID: 0}
    m_RemovedComponents: []
  m_SourcePrefab: {fileID: 100100000, guid: 42ea41fe40656534fa7a1f52c08b8061, type: 3}
--- !u!4 &3372296885198793869 stripped
Transform:
  m_CorrespondingSourceObject: {fileID: -8679921383154817045, guid: 42ea41fe40656534fa7a1f52c08b8061,
    type: 3}
  m_PrefabInstance: {fileID: 2974195837218016102}
  m_PrefabAsset: {fileID: 0}
