%YAML 1.1
%TAG !u! tag:unity3d.com,2011:
--- !u!1 &5703658371731366957
GameObject:
  m_ObjectHideFlags: 0
  m_CorrespondingSourceObject: {fileID: 0}
  m_PrefabInstance: {fileID: 0}
  m_PrefabAsset: {fileID: 0}
  serializedVersion: 6
  m_Component:
  - component: {fileID: 5703658371731366958}
  - component: {fileID: 6296212445253082990}
  m_Layer: 0
  m_Name: Rock
  m_TagString: Untagged
  m_Icon: {fileID: 0}
  m_NavMeshLayer: 0
  m_StaticEditorFlags: 0
  m_IsActive: 1
--- !u!4 &5703658371731366958
Transform:
  m_ObjectHideFlags: 0
  m_CorrespondingSourceObject: {fileID: 0}
  m_PrefabInstance: {fileID: 0}
  m_PrefabAsset: {fileID: 0}
  m_GameObject: {fileID: 5703658371731366957}
  m_LocalRotation: {x: 0, y: 0.20374426, z: 0, w: 0.9790242}
  m_LocalPosition: {x: -19.358871, y: -2.75, z: 12.936947}
  m_LocalScale: {x: 1, y: 1, z: 1}
  m_Children:
  - {fileID: 7124596247336058333}
  m_Father: {fileID: 0}
  m_RootOrder: 0
  m_LocalEulerAnglesHint: {x: 0, y: 23.512001, z: 0}
--- !u!114 &6296212445253082990
MonoBehaviour:
  m_ObjectHideFlags: 0
  m_CorrespondingSourceObject: {fileID: 0}
  m_PrefabInstance: {fileID: 0}
  m_PrefabAsset: {fileID: 0}
  m_GameObject: {fileID: 5703658371731366957}
  m_Enabled: 1
  m_EditorHideFlags: 0
  m_Script: {fileID: 11500000, guid: 2c922e87da2f4fb488f019c76dc735ad, type: 3}
  m_Name: 
  m_EditorClassIdentifier: 
--- !u!1001 &7301777518518245942
PrefabInstance:
  m_ObjectHideFlags: 0
  serializedVersion: 2
  m_Modification:
    m_TransformParent: {fileID: 5703658371731366958}
    m_Modifications:
    - target: {fileID: -8679921383154817045, guid: a50a44bdeb2d12c4c9ecfb70bb1b9ec2,
        type: 3}
      propertyPath: m_LocalPosition.x
      value: -0
      objectReference: {fileID: 0}
    - target: {fileID: -8679921383154817045, guid: a50a44bdeb2d12c4c9ecfb70bb1b9ec2,
        type: 3}
      propertyPath: m_LocalPosition.y
      value: 0
      objectReference: {fileID: 0}
    - target: {fileID: -8679921383154817045, guid: a50a44bdeb2d12c4c9ecfb70bb1b9ec2,
        type: 3}
      propertyPath: m_LocalPosition.z
      value: 0
      objectReference: {fileID: 0}
    - target: {fileID: -8679921383154817045, guid: a50a44bdeb2d12c4c9ecfb70bb1b9ec2,
        type: 3}
      propertyPath: m_LocalRotation.x
      value: -0.7071068
      objectReference: {fileID: 0}
    - target: {fileID: -8679921383154817045, guid: a50a44bdeb2d12c4c9ecfb70bb1b9ec2,
        type: 3}
      propertyPath: m_LocalRotation.y
      value: 0
      objectReference: {fileID: 0}
    - target: {fileID: -8679921383154817045, guid: a50a44bdeb2d12c4c9ecfb70bb1b9ec2,
        type: 3}
      propertyPath: m_LocalRotation.z
      value: -0
      objectReference: {fileID: 0}
    - target: {fileID: -8679921383154817045, guid: a50a44bdeb2d12c4c9ecfb70bb1b9ec2,
        type: 3}
      propertyPath: m_LocalRotation.w
      value: 0.7071067
      objectReference: {fileID: 0}
    - target: {fileID: -8679921383154817045, guid: a50a44bdeb2d12c4c9ecfb70bb1b9ec2,
        type: 3}
      propertyPath: m_RootOrder
      value: 0
      objectReference: {fileID: 0}
    - target: {fileID: -8679921383154817045, guid: a50a44bdeb2d12c4c9ecfb70bb1b9ec2,
        type: 3}
      propertyPath: m_LocalEulerAnglesHint.x
      value: 0
      objectReference: {fileID: 0}
    - target: {fileID: -8679921383154817045, guid: a50a44bdeb2d12c4c9ecfb70bb1b9ec2,
        type: 3}
      propertyPath: m_LocalEulerAnglesHint.y
      value: 0
      objectReference: {fileID: 0}
    - target: {fileID: -8679921383154817045, guid: a50a44bdeb2d12c4c9ecfb70bb1b9ec2,
        type: 3}
      propertyPath: m_LocalEulerAnglesHint.z
      value: 0
      objectReference: {fileID: 0}
    - target: {fileID: -8679921383154817045, guid: a50a44bdeb2d12c4c9ecfb70bb1b9ec2,
        type: 3}
      propertyPath: m_LocalScale.x
      value: 200
      objectReference: {fileID: 0}
    - target: {fileID: -8679921383154817045, guid: a50a44bdeb2d12c4c9ecfb70bb1b9ec2,
        type: 3}
      propertyPath: m_LocalScale.y
      value: 200
      objectReference: {fileID: 0}
    - target: {fileID: -8679921383154817045, guid: a50a44bdeb2d12c4c9ecfb70bb1b9ec2,
        type: 3}
      propertyPath: m_LocalScale.z
      value: 200
      objectReference: {fileID: 0}
    - target: {fileID: -7511558181221131132, guid: a50a44bdeb2d12c4c9ecfb70bb1b9ec2,
        type: 3}
      propertyPath: m_Materials.Array.data[0]
      value: 
      objectReference: {fileID: 2100000, guid: 90e377e6cd871574fab01583565ba8a7, type: 2}
    - target: {fileID: 919132149155446097, guid: a50a44bdeb2d12c4c9ecfb70bb1b9ec2,
        type: 3}
      propertyPath: m_Name
      value: rock_obj
      objectReference: {fileID: 0}
    m_RemovedComponents: []
  m_SourcePrefab: {fileID: 100100000, guid: a50a44bdeb2d12c4c9ecfb70bb1b9ec2, type: 3}
--- !u!4 &7124596247336058333 stripped
Transform:
  m_CorrespondingSourceObject: {fileID: -8679921383154817045, guid: a50a44bdeb2d12c4c9ecfb70bb1b9ec2,
    type: 3}
  m_PrefabInstance: {fileID: 7301777518518245942}
  m_PrefabAsset: {fileID: 0}
