%YAML 1.1
%TAG !u! tag:unity3d.com,2011:
--- !u!114 &11400000
MonoBehaviour:
  m_ObjectHideFlags: 0
  m_CorrespondingSourceObject: {fileID: 0}
  m_PrefabInstance: {fileID: 0}
  m_PrefabAsset: {fileID: 0}
  m_GameObject: {fileID: 0}
  m_Enabled: 1
  m_EditorHideFlags: 0
  m_Script: {fileID: 11500000, guid: 60bec09c0dc81314396cfdac92cc3be1, type: 3}
  m_Name: AnimalManager
  m_EditorClassIdentifier: 
  animalType:
  - {fileID: 11400000, guid: 608255ed3aa8cb64e93c31c1d3eea28b, type: 2}
  - {fileID: 11400000, guid: 8012621233ece154eb9a511613a7f8d0, type: 2}
  - {fileID: 11400000, guid: 3d831db022cd26947b390ebd9040c46a, type: 2}
  - {fileID: 11400000, guid: 2d6c0e35b574a2745a9cef24ee5d3e25, type: 2}
  - {fileID: 11400000, guid: 0fcee213c7595ad489cfd32e7816e573, type: 2}
  - {fileID: 11400000, guid: 9197ac31e2dd2054c908790f0f441eb9, type: 2}
  - {fileID: 11400000, guid: 0fd0965108be17b4a91cffeb2a5160cd, type: 2}
  - {fileID: 11400000, guid: e7278d96cd9b5c242b8a676acb0ec980, type: 2}
