%YAML 1.1
%TAG !u! tag:unity3d.com,2011:
--- !u!114 &11400000
MonoBehaviour:
  m_ObjectHideFlags: 0
  m_CorrespondingSourceObject: {fileID: 0}
  m_PrefabInstance: {fileID: 0}
  m_PrefabAsset: {fileID: 0}
  m_GameObject: {fileID: 0}
  m_Enabled: 1
  m_EditorHideFlags: 0
  m_Script: {fileID: 11500000, guid: a6612c3fbdf8f4f49a210a7199b7fc57, type: 3}
  m_Name: Lion
  m_EditorClassIdentifier: 
  prefab: {fileID: 8131415395896613885, guid: bd98d96330140df4d957b04c2ad2aeb1, type: 3}
  available: 1
